<svg xmlns="http://www.w3.org/2000/svg" width="17" height="17" viewBox="0 0 17 17">
    <defs>
        <filter id="a" width="107%" x="-3.5%" filterUnits="objectBoundingBox">
            <feOffset dy="2" in="SourceAlpha" result="shadowOffsetOuter1"/>
            <feGaussianBlur in="shadowOffsetOuter1" result="shadowBlurOuter1" stdDeviation="2"/>
            <feColorMatrix in="shadowBlurOuter1" result="shadowMatrixOuter1" values="0 0 0 0 0 0 0 0 0 0 0 0 0 0 0 0 0 0 0.153900787 0"/>
            <feMerge>
                <feMergeNode in="shadowMatrixOuter1"/>
                <feMergeNode in="SourceGraphic"/>
            </feMerge>
        </filter>
    </defs>
    <g fill="#FFF" fill-rule="nonzero" filter="url(#a)" transform="translate(-94 -83)">
        <path d="M102.119 98.828a8.097 8.097 0 0 1-3.298-.714 8.184 8.184 0 0 1-3.552-2.998c-1.274-1.95-1.604-4.365-.92-6.616a7.725 7.725 0 0 1 4.318-4.86c2.2-.954 4.875-.835 6.982.315.308.17.419.55.248.85a.634.634 0 0 1-.86.246c-1.765-.965-4.016-1.063-5.863-.262a6.471 6.471 0 0 0-3.612 4.076 6.64 6.64 0 0 0 .772 5.575c1.467 2.251 4.301 3.499 6.893 3.036 2.063-.365 3.905-1.755 4.81-3.63a.633.633 0 0 1 .843-.294.62.62 0 0 1 .298.834c-1.064 2.229-3.26 3.886-5.72 4.321-.44.082-.887.12-1.34.12z"/>
        <path d="M101.816 94.724a.64.64 0 0 1-.448-.18l-3.658-3.467a.619.619 0 0 1-.012-.886.664.664 0 0 1 .912-.01l3.206 3.043 8.089-7.701c.252-.24.66-.24.912.01a.614.614 0 0 1-.011.887l-8.537 8.125a.644.644 0 0 1-.453.18z"/>
    </g>
</svg>
