<svg xmlns="http://www.w3.org/2000/svg" width="23" height="23" viewBox="0 0 23 23">
    <path fill="#FFF" fill-rule="nonzero" d="M13.267 11.5l9.33-9.36a1.234 1.234 0 0 0 0-1.768 1.234 1.234 0 0 0-1.767 0L11.5 9.733 2.14.403a1.234 1.234 0 0 0-1.768 0 1.234 1.234 0 0 0 0 1.767l9.361 9.33-9.33 9.36a1.234 1.234 0 0 0 0 1.768c.497.496 1.271.496 1.767 0l9.33-9.361 9.36 9.36c.497.497 1.271.497 1.768 0a1.234 1.234 0 0 0 0-1.766L13.267 11.5z"/>
</svg>
