<svg xmlns="http://www.w3.org/2000/svg" width="25" height="19" viewBox="0 0 25 19">
    <path fill="#4E2D6B" fill-rule="nonzero" d="M1.22 0a1.219 1.219 0 1 0 0 2.439h22.56a1.219 1.219 0 1 0 0-2.439H1.22zm0 7.927a1.219 1.219 0 1 0 0 2.439h22.56a1.219 1.219 0 1 0 0-2.44H1.22zm0 7.927a1.219 1.219 0 1 0 0 2.439h22.56a1.219 1.219 0 1 0 0-2.44H1.22z"/>
</svg>
