<svg xmlns="http://www.w3.org/2000/svg" width="98" height="72" viewBox="0 0 98 72">
    <g fill="none" fill-rule="nonzero">
        <path fill="#4E2D6B" d="M38.918 71.617h-2.473v-8.324c-1-1.305-4.53-6.149-8.293-14.043-2.715.387-10.449.902-16.789-4.203-1.445-.23-6.68-1.281-9.152-4.63-1.11-1.507-1.55-2.956-1.305-4.316a4.012 4.012 0 0 1 1.336-2.316l9.953-18.59c.29-1.48 1.48-3.965 4.258-4.117.465-.028 1.262-.207 2.113-.403 2.653-.601 6.282-1.425 8.465.317 1.094.871 1.645 2.223 1.645 4.012 0 3.214-.89 5.394-2.649 6.48-1.773 1.098-4.195.988-7.37-.348L16.84 31.374l-2.438-.433 2.387-13.445 1.48.738c3 1.5 5.231 1.898 6.458 1.145 1.218-.754 1.472-2.797 1.472-4.375 0-1.508-.535-1.938-.71-2.079-1.259-.996-4.337-.3-6.38.165-.992.226-1.851.418-2.523.457-1.633.09-1.973 2.152-1.984 2.238l-.137.402L4.149 35.464l-.27.176s-.445.324-.543.941c-.105.645.192 1.465.864 2.372 2.187 2.964 7.773 3.69 7.832 3.699l.363.047.281.234c6.781 5.676 15.832 3.758 15.922 3.738l.973-.215.414.899c4.363 9.375 8.61 14.688 8.656 14.738l.274.34.003 9.184z"/>
        <path fill="#3EA547" d="M31.227 33.469l-.367-.293c-8.414-6.656-17.395-.05-17.484.02l-1.488-1.977c.101-.078 10.32-7.613 20.113-.285 1.996-.203 10.125-1.332 12.316-6.406l2.269.98c-3.102 7.176-14.41 7.91-14.891 7.938l-.468.023z"/>
        <path fill="#4E2D6B" d="M61.555 71.617h-2.477v-9.188l.274-.34c.039-.054 4.289-5.363 8.652-14.737l.414-.899.973.211c.094.02 9.168 1.914 15.922-3.738l.281-.235.363-.046c.059-.008 5.645-.735 7.832-3.7.684-.921.98-1.753.86-2.402-.106-.586-.531-.906-.535-.91l-.27-.176-10.449-19.68c-.016-.078-.351-2.14-1.984-2.23-.672-.04-1.532-.23-2.524-.457-2.039-.465-5.12-1.16-6.379-.164-.175.14-.71.57-.71 2.078 0 1.578.257 3.62 1.472 4.375 1.219.754 3.45.355 6.457-1.145l1.48-.738 2.387 13.445-2.437.433-1.817-10.238c-3.171 1.332-5.59 1.446-7.367.348-1.758-1.086-2.648-3.265-2.648-6.48 0-1.793.55-3.141 1.644-4.012 2.184-1.742 5.817-.918 8.465-.316.848.19 1.649.375 2.113.402 2.782.152 3.973 2.637 4.262 4.117l9.95 18.59a4.018 4.018 0 0 1 1.335 2.316c.246 1.356-.191 2.81-1.304 4.317-2.477 3.348-7.707 4.394-9.153 4.629-6.34 5.105-14.066 4.586-16.785 4.203-3.761 7.894-7.293 12.734-8.293 14.043l-.004 8.324z"/>
        <path fill="#4CACD2" d="M66.75 33.484l-.492-.043c-.512-.047-12.555-1.234-15.04-7.996l2.325-.852c1.535 4.196 9.11 5.934 12.469 6.336 9.785-7.308 19.996.219 20.102.297l-1.488 1.977c-.367-.274-9.094-6.653-17.488-.02l-.388.301z"/>
        <path fill="#F6BE25" d="M57.012 16.684l-.895-2.309c.512-.203 4.957-2.132 3.329-7.585l2.37-.708c1.86 6.22-2.331 9.657-4.804 10.602z"/>
        <path fill="#DE4A88" d="M49.016 27.16c-4.852 0-8.797-3.945-8.797-8.797v-2.02l-.3.356c-2.676-2.227-4.16-4.8-4.407-7.656C35.118 4.488 38.075.957 38.2.813l.367-.438h26.94l-.78 1.742c-1.864 4.156-4.325 6.813-6.957 8.469h.039v7.773c-.004 4.856-3.95 8.801-8.793 8.801zm-6.324-14.879v6.086a6.328 6.328 0 0 0 6.32 6.32c3.484 0 6.316-2.836 6.316-6.32v-6.531c-4.96 2.011-10.062 1.133-12.637.445zm-2.93-9.426c-.648.942-2.023 3.29-1.781 6.004.148 1.684.902 3.266 2.242 4.727V8.754l1.707.691c.55.227 13.09 5.152 19.668-6.59H39.762z"/>
    </g>
</svg>
